ispLEVER Classic 2.0.00.17.20.15 Lattice Semiconductor Corp.
JEDEC file for: P22V10G V9.0
Created on: Sun Sep 02 18:39:01 2018

*
QP24* QF5892* QV0* F0*
 X0*
NOTE DEVICE NAME: GAL22V10B-10LP*
NOTE Table of pin names and numbers*
NOTE PINS D:2 CLK:1 CLR:3 PRE:4 QN:23 Q:14*
L0000 11111111101111111111111111111111111111111111*
L0044 11111111111111111111111111111111111111111111*
L0088 11110111111111111111111111111111111111111111*
L0132 11111111111101111111111111111111111111111111*
L5368 11111111111111111111111111111111111111111111*
L5412 11110111111111111111111111111111111111111111*
L5456 11111111111101111111111111111111111111111111*
L5808 00000000000000000010*
C25C9*
95B1
