
     | | | | | | |
   _________________
  -|               |-
  -|               |-
  -|               |-
  -|    CYPRESS    |-
  -|               |-
  -|               |-   Warp VHDL Synthesis Compiler: Version 6.3 IR 35
  -|               |-   Copyright (C) 1991-2001 Cypress Semiconductor
   |_______________|
     | | | | | | |

======================================================================
Compiling:  FFSR.VHD
Options:    -yu -e10 -w100 -o2 -ygs -fP -v10 -dc22v10 -ppalc22v10d-25pc -b FFSR.VHD -u FFSR.hie
======================================================================

vhdlfe V6.3 IR 35:  VHDL parser
Wed Sep 12 20:31:24 2018

Library 'work' => directory 'lc22v10'
Linking 'C:\PROG~5P2\Cypress\Warp\bin\std.vhd'.
Linking 'C:\PROG~5P2\Cypress\Warp\lib\common\cypress.vhd'.
Linking 'C:\PROG~5P2\Cypress\Warp\lib\common\work\cypress.vif'.
Library 'ieee' => directory 'C:\PROG~5P2\Cypress\Warp\lib\ieee\work'
Linking 'C:\PROG~5P2\Cypress\Warp\lib\ieee\work\stdlogic.vif'.

vhdlfe:  No errors.


tovif V6.3 IR 35:  High-level synthesis
Wed Sep 12 20:31:25 2018

Linking 'C:\PROG~5P2\Cypress\Warp\bin\std.vhd'.
Linking 'C:\PROG~5P2\Cypress\Warp\lib\common\cypress.vhd'.
Linking 'C:\PROG~5P2\Cypress\Warp\lib\common\work\cypress.vif'.
Linking 'C:\PROG~5P2\Cypress\Warp\lib\ieee\work\stdlogic.vif'.

tovif:  No errors.


topld V6.3 IR 35:  Synthesis and optimization
Wed Sep 12 20:31:25 2018

Linking 'C:\PROG~5P2\Cypress\Warp\bin\std.vhd'.
Linking 'C:\PROG~5P2\Cypress\Warp\lib\common\cypress.vhd'.
Linking 'C:\PROG~5P2\Cypress\Warp\lib\common\work\cypress.vif'.
Linking 'C:\PROG~5P2\Cypress\Warp\lib\ieee\work\stdlogic.vif'.

----------------------------------------------------------
Detecting unused logic.
----------------------------------------------------------



------------------------------------------------------
Alias Detection
------------------------------------------------------

------------------------------------------------------
Aliased 0 equations, 2 wires.
------------------------------------------------------

----------------------------------------------------------
Circuit simplification
----------------------------------------------------------

----------------------------------------------------------
Circuit simplification results:

	Expanded 0 signals.
	Turned 0 signals into soft nodes.
	Maximum default expansion cost was set at 10.
----------------------------------------------------------
Created 13 PLD nodes.

topld:  No errors.

----------------------------------------------------------------------------
PLD Optimizer Software:       DSGNOPT.EXE    31/03/2000  [v4.02 ] 6.3 IR 35

DESIGN HEADER INFORMATION  (20:31:26)

Input File(s): FFSR.pla
Device       : C22V10
Package      : palc22v10d-25pc
ReportFile   : FFSR.rpt

Program Controls:
    COMMAND LANGUAGE_VHDL 
    COMMAND PROPERTY BUS_HOLD ENABLE 

Signal Requests:
    GROUP USEPOL ALL
    GROUP FAST_SLEW ALL

Completed Successfully  
----------------------------------------------------------------------------
PLD Optimizer Software:       DSGNOPT.EXE    31/03/2000  [v4.02 ] 6.3 IR 35

OPTIMIZATION OPTIONS       (20:31:26)

Messages:
  Information: Process virtual 'qnD'qnD ... expanded.
  Information: Process virtual 'qD'qD ... expanded.
  Information: Optimizing logic using best output polarity for signals:
         q.D qn.D

  Information: Selected logic optimization OFF for signals:
         q.AR q.C qn.AP qn.C



Summary:
                 Error Count = 0      Warning Count = 0

Completed Successfully  
----------------------------------------------------------------------------
PLD Optimizer Software:       MINOPT.EXE     01/NOV/1999  [v4.02 ] 6.3 IR 35

LOGIC MINIMIZATION         ()

Messages:


Summary:
                 Error Count = 0      Warning Count = 0

Completed Successfully
----------------------------------------------------------------------------
PLD Optimizer Software:       DSGNOPT.EXE    31/03/2000  [v4.02 ] 6.3 IR 35

OPTIMIZATION OPTIONS       (20:31:27)

Messages:
  Information: Optimizing Banked Preset/Reset requirements.
  Information: Optimizing logic without changing polarity for signals:
         q.D qn.D

  Information: Selected logic optimization OFF for signals:
         q.AR q.SP q.C qn.AR qn.SP qn.C



Summary:
                 Error Count = 0      Warning Count = 0

Completed Successfully  
----------------------------------------------------------------------------
PLD Optimizer Software:       MINOPT.EXE     01/NOV/1999  [v4.02 ] 6.3 IR 35

LOGIC MINIMIZATION         ()

Messages:


Summary:
                 Error Count = 0      Warning Count = 0

Completed Successfully
----------------------------------------------------------------------------
PLD Optimizer Software:       DSGNOPT.EXE    31/03/2000  [v4.02 ] 6.3 IR 35

OPTIMIZATION OPTIONS       (20:31:27)

Messages:


Summary:
                 Error Count = 0      Warning Count = 0

Completed Successfully  
----------------------------------------------------------------------------
PLD Compiler Software:        PLA2JED.EXE    31/03/2000  [v4.02 ] 6.3 IR 35

<CYPRESSTAG name="Equations" icon=FILE_RPT_EQUATION>
DESIGN EQUATIONS           (20:31:27)
</CYPRESSTAG>

    q.D =
          q.Q * /sr(0) 
        + sr(1) 
        + pre 

    q.AR =
          /clr 

    q.SP =
          GND

    q.C =
          clk 

    /qn.D =
          q.Q * /sr(0) 
        + /sr(0) * sr(1) 
        + pre 

    qn.AR =
          /clr 

    qn.SP =
          GND

    qn.C =
          clk 


Completed Successfully  
----------------------------------------------------------------------------
PLD Compiler Software:        PLA2JED.EXE    31/03/2000  [v4.02 ] 6.3 IR 35

DESIGN RULE CHECK          (20:31:27)

Messages:
                 None.


Summary:
                 Error Count = 0      Warning Count = 0

Completed Successfully  
----------------------------------------------------------------------------
PLD Compiler Software:        PLA2JED.EXE    31/03/2000  [v4.02 ] 6.3 IR 35

<CYPRESSTAG name="Pinout" icon=FILE_RPT_PINOUT>
PINOUT INFORMATION   (20:31:27)
</CYPRESSTAG>
Messages:
  Information: All signals pre-placed in user design.


                                 C22V10
                 __________________________________________
            clk =| 1|                                  |24|* not used       
          sr(1) =| 2|                                  |23|= q              
          sr(0) =| 3|                                  |22|= qn             
            clr =| 4|                                  |21|* not used       
            pre =| 5|                                  |20|* not used       
       not used *| 6|                                  |19|* not used       
       not used *| 7|                                  |18|* not used       
       not used *| 8|                                  |17|* not used       
       not used *| 9|                                  |16|* not used       
       not used *|10|                                  |15|* not used       
       not used *|11|                                  |14|* not used       
       not used *|12|                                  |13|* not used       
                 __________________________________________


Summary:
                 Error Count = 0      Warning Count = 0

Completed Successfully  
  Information: Checking for duplicate NODE logic.
----------------------------------------------------------------------------
PLD Compiler Software:        PLA2JED.EXE    31/03/2000  [v4.02 ] 6.3 IR 35

<CYPRESSTAG name="Utilization" icon=FILE_RPT_UTILIZATION>
RESOURCE UTILIZATION (20:31:27)
</CYPRESSTAG>
  Information: Macrocell Utilization.

                     Description        Used     Max
                 ______________________________________
                 | Dedicated Inputs   |    4  |   11  |
                 | Clock/Inputs       |    1  |    1  |
                 | I/O Macrocells     |    2  |   10  |
                 ______________________________________
                                           7  /   22   = 31  %


  Information: Output Logic Product Term Utilization.

                  Node#  Output Signal Name  Used   Max
                 ________________________________________
                 | 14  |  Unused          |   0  |   8  |
                 | 15  |  Unused          |   0  |  10  |
                 | 16  |  Unused          |   0  |  12  |
                 | 17  |  Unused          |   0  |  14  |
                 | 18  |  Unused          |   0  |  16  |
                 | 19  |  Unused          |   0  |  16  |
                 | 20  |  Unused          |   0  |  14  |
                 | 21  |  Unused          |   0  |  12  |
                 | 22  |  qn              |   3  |  10  |
                 | 23  |  q               |   3  |   8  |
                 | 25  |  Unused          |   0  |   1  |
                 ________________________________________
                                              6  / 121   = 4   %


Completed Successfully  
----------------------------------------------------------------------------
PLD Compiler Software:        PLA2JED.EXE    31/03/2000  [v4.02 ] 6.3 IR 35

JEDEC ASSEMBLE             (20:31:27)

Messages:
  Information: Output file 'FFSR.pin' created.
  Information: Output file 'FFSR.jed' created.

  Usercode:    
  Checksum:    2FF1



Summary:
                 Error Count = 0      Warning Count = 0

Completed Successfully at 20:31:27
