Cypress C22V10 Jedec Fuse File: REG_UNI.jed

This file was created on 11/02/2018 at 15:41:26 
by PLA2JED.EXE    31/03/2000  [v4.02 ] 6.3 IR 35

C22V10*
QP24*                Number of Pins*
QF5828*              Number of Fuses*
F0*                  Note: Default fuse setting 0*
G0*                  Note: Security bit Unprogrammed*
NOTE DEVICE C22V10*
NOTE PACKAGE palc22v10d-25pc*
NOTE PROPERTY BUS_HOLD ENABLE*
NOTE PINS  clk:1 clr:2 c(1):3 c(0):4 dato(7):5 dato(6):6 dato(5):7 dato(4):8 *
NOTE PINS  dato(3):9 dato(2):10 dato(1):11 dato(0):13 cd:14 ci:15 q(0):16 *
NOTE PINS  q(1):17 q(2):18 q(3):19 q(4):20 q(5):21 q(6):22 q(7):23 *
NOTE PINS *
NOTE NODES *
L00000
11111011111111111111111111111111111111111111
* Node clk[1] => BANK : 1 *

L00044
11111111111111111111111111111111111111111111
11111110011101111111111111111111111111111111
11111111011110111111111111111111111111011111
11101111101101111111111111111111111111111111
11111111101110110111111111111111111111111111
00000000000000000000000000000000000000000000
00000000000000000000000000000000000000000000
00000000000000000000000000000000000000000000
00000000000000000000000000000000000000000000
* Node q(7)[23] => OE : 1 ,LOGIC : 8 *

L00440
11111111111111111111111111111111111111111111
11111111011001111111111111111111111111111111
11101111011110111111111111111111111111111111
11111110101101111111111111111111111111111111
11111111101110111111011111111111111111111111
00000000000000000000000000000000000000000000
00000000000000000000000000000000000000000000
00000000000000000000000000000000000000000000
00000000000000000000000000000000000000000000
00000000000000000000000000000000000000000000
00000000000000000000000000000000000000000000
* Node q(6)[22] => OE : 1 ,LOGIC : 10 *

L00924
11111111111111111111111111111111111111111111
11111111011101101111111111111111111111111111
11111110011110111111111111111111111111111111
11111111101001111111111111111111111111111111
11111111101110111111111101111111111111111111
00000000000000000000000000000000000000000000
00000000000000000000000000000000000000000000
00000000000000000000000000000000000000000000
00000000000000000000000000000000000000000000
00000000000000000000000000000000000000000000
00000000000000000000000000000000000000000000
00000000000000000000000000000000000000000000
00000000000000000000000000000000000000000000
* Node q(5)[21] => OE : 1 ,LOGIC : 12 *

L01496
11111111111111111111111111111111111111111111
11111111011101111110111111111111111111111111
11111111011010111111111111111111111111111111
11111111101101101111111111111111111111111111
11111111101110111111111111110111111111111111
00000000000000000000000000000000000000000000
00000000000000000000000000000000000000000000
00000000000000000000000000000000000000000000
00000000000000000000000000000000000000000000
00000000000000000000000000000000000000000000
00000000000000000000000000000000000000000000
00000000000000000000000000000000000000000000
00000000000000000000000000000000000000000000
00000000000000000000000000000000000000000000
00000000000000000000000000000000000000000000
* Node q(4)[20] => OE : 1 ,LOGIC : 14 *

L02156
11111111111111111111111111111111111111111111
11111111011101111111111011111111111111111111
11111111011110101111111111111111111111111111
11111111101101111110111111111111111111111111
11111111101110111111111111111111011111111111
00000000000000000000000000000000000000000000
00000000000000000000000000000000000000000000
00000000000000000000000000000000000000000000
00000000000000000000000000000000000000000000
00000000000000000000000000000000000000000000
00000000000000000000000000000000000000000000
00000000000000000000000000000000000000000000
00000000000000000000000000000000000000000000
00000000000000000000000000000000000000000000
00000000000000000000000000000000000000000000
00000000000000000000000000000000000000000000
00000000000000000000000000000000000000000000
* Node q(3)[19] => OE : 1 ,LOGIC : 16 *

L02904
11111111111111111111111111111111111111111111
11111111011101111111111111101111111111111111
11111111011110111110111111111111111111111111
11111111101101111111111011111111111111111111
11111111101110111111111111111111111101111111
00000000000000000000000000000000000000000000
00000000000000000000000000000000000000000000
00000000000000000000000000000000000000000000
00000000000000000000000000000000000000000000
00000000000000000000000000000000000000000000
00000000000000000000000000000000000000000000
00000000000000000000000000000000000000000000
00000000000000000000000000000000000000000000
00000000000000000000000000000000000000000000
00000000000000000000000000000000000000000000
00000000000000000000000000000000000000000000
00000000000000000000000000000000000000000000
* Node q(2)[18] => OE : 1 ,LOGIC : 16 *

L03652
11111111111111111111111111111111111111111111
11111111011101111111111111111110111111111111
11111111011110111111111011111111111111111111
11111111101101111111111111101111111111111111
11111111101110111111111111111111111111110111
00000000000000000000000000000000000000000000
00000000000000000000000000000000000000000000
00000000000000000000000000000000000000000000
00000000000000000000000000000000000000000000
00000000000000000000000000000000000000000000
00000000000000000000000000000000000000000000
00000000000000000000000000000000000000000000
00000000000000000000000000000000000000000000
00000000000000000000000000000000000000000000
00000000000000000000000000000000000000000000
* Node q(1)[17] => OE : 1 ,LOGIC : 14 *

L04312
11111111111111111111111111111111111111111111
11111111011101111111111111111111110111111111
11111111011110111111111111101111111111111111
11111111101101111111111111111110111111111111
11111111101110111111111111111111111111111101
00000000000000000000000000000000000000000000
00000000000000000000000000000000000000000000
00000000000000000000000000000000000000000000
00000000000000000000000000000000000000000000
00000000000000000000000000000000000000000000
00000000000000000000000000000000000000000000
00000000000000000000000000000000000000000000
00000000000000000000000000000000000000000000
* Node q(0)[16] => OE : 1 ,LOGIC : 12 *

L04884
00000000000000000000000000000000000000000000
00000000000000000000000000000000000000000000
00000000000000000000000000000000000000000000
00000000000000000000000000000000000000000000
00000000000000000000000000000000000000000000
00000000000000000000000000000000000000000000
00000000000000000000000000000000000000000000
00000000000000000000000000000000000000000000
00000000000000000000000000000000000000000000
00000000000000000000000000000000000000000000
00000000000000000000000000000000000000000000
* Node ci[15] => OE : 1 ,LOGIC : 10 *

L05368
00000000000000000000000000000000000000000000
00000000000000000000000000000000000000000000
00000000000000000000000000000000000000000000
00000000000000000000000000000000000000000000
00000000000000000000000000000000000000000000
00000000000000000000000000000000000000000000
00000000000000000000000000000000000000000000
00000000000000000000000000000000000000000000
00000000000000000000000000000000000000000000
* Node cd[14] => OE : 1 ,LOGIC : 8 *

L05764
00000000000000000000000000000000000000000000
* Node clr[2] => BANK : 1 *

L05808
10* Note: 23 *

L05810
10* Note: 22 *

L05812
10* Note: 21 *

L05814
10* Note: 20 *

L05816
10* Note: 19 *

L05818
10* Note: 18 *

L05820
10* Note: 17 *

L05822
10* Note: 16 *

L05824
01* Note: 15 *

L05826
01* Note: 14 *

CD8E2*               Note: Fuse Checksum*
88C9
