
     | | | | | | |
   _________________
  -|               |-
  -|               |-
  -|               |-
  -|    CYPRESS    |-
  -|               |-
  -|               |-   Warp VHDL Synthesis Compiler: Version 6.3 IR 35
  -|               |-   Copyright (C) 1991-2001 Cypress Semiconductor
   |_______________|
     | | | | | | |

======================================================================
Compiling:  DADO.VHD
Options:    -yu -e10 -w100 -o2 -ygs -fP -v10 -dc22v10 -ppalc22v10d-25pc -b DADO.VHD -u DADO.hie
======================================================================

C:\PROGRA~2\Cypress\Warp\bin\vhdlfe.exe V6.3 IR 35:  VHDL parser
Tue Nov 06 23:19:18 2018

Library 'work' => directory 'lc22v10'
Linking 'C:\Program Files (x86)\Cypress\Warp\bin\std.vhd'.
Linking 'C:\Program Files (x86)\Cypress\Warp\lib\common\cypress.vhd'.
Linking 'C:\Program Files (x86)\Cypress\Warp\lib\common\work\cypress.vif'.
Library 'ieee' => directory 'C:\Program Files (x86)\Cypress\Warp\lib\ieee\work'
Linking 'C:\Program Files (x86)\Cypress\Warp\lib\ieee\work\stdlogic.vif'.

C:\PROGRA~2\Cypress\Warp\bin\vhdlfe.exe:  No errors.


C:\PROGRA~2\Cypress\Warp\bin\tovif.exe V6.3 IR 35:  High-level synthesis
Tue Nov 06 23:19:19 2018

Linking 'C:\Program Files (x86)\Cypress\Warp\bin\std.vhd'.
Linking 'C:\Program Files (x86)\Cypress\Warp\lib\common\cypress.vhd'.
Linking 'C:\Program Files (x86)\Cypress\Warp\lib\common\work\cypress.vif'.
Linking 'C:\Program Files (x86)\Cypress\Warp\lib\ieee\work\stdlogic.vif'.

C:\PROGRA~2\Cypress\Warp\bin\tovif.exe:  No errors.


C:\PROGRA~2\Cypress\Warp\bin\topld.exe V6.3 IR 35:  Synthesis and optimization
Tue Nov 06 23:19:19 2018

Linking 'C:\Program Files (x86)\Cypress\Warp\bin\std.vhd'.
Linking 'C:\Program Files (x86)\Cypress\Warp\lib\common\cypress.vhd'.
Linking 'C:\Program Files (x86)\Cypress\Warp\lib\common\work\cypress.vif'.
Linking 'C:\Program Files (x86)\Cypress\Warp\lib\ieee\work\stdlogic.vif'.

----------------------------------------------------------
Detecting unused logic.
----------------------------------------------------------
    User names
	j_2
	k_2
	j_1
	k_1
	j_0
	k_0


Deleted 6 User equations/components.
Deleted 0 Synthesized equations/components.

------------------------------------------------------
Alias Detection
------------------------------------------------------

------------------------------------------------------
Aliased 0 equations, 7 wires.
------------------------------------------------------

----------------------------------------------------------
Circuit simplification
----------------------------------------------------------

----------------------------------------------------------
Circuit simplification results:

	Expanded 5 signals.
	Turned 0 signals into soft nodes.
	Maximum default expansion cost was set at 10.
----------------------------------------------------------

------------------------------------------------------
Alias Detection
------------------------------------------------------

------------------------------------------------------
Aliased 0 equations, 0 wires.
------------------------------------------------------
Created 34 PLD nodes.

C:\PROGRA~2\Cypress\Warp\bin\topld.exe:  No errors.

----------------------------------------------------------------------------
PLD Optimizer Software:       DSGNOPT.EXE    31/03/2000  [v4.02 ] 6.3 IR 35

DESIGN HEADER INFORMATION  (23:19:22)

Input File(s): DADO.pla
Device       : C22V10
Package      : palc22v10d-25pc
ReportFile   : DADO.rpt

Program Controls:
    COMMAND LANGUAGE_VHDL 
    COMMAND PROPERTY BUS_HOLD ENABLE 

Signal Requests:
    GROUP USEPOL ALL
    GROUP FAST_SLEW ALL

Completed Successfully  
----------------------------------------------------------------------------
PLD Optimizer Software:       DSGNOPT.EXE    31/03/2000  [v4.02 ] 6.3 IR 35

OPTIMIZATION OPTIONS       (23:19:22)

Messages:
  Information: Process virtual 'q_2D'q_2D ... expanded.
  Information: Process virtual 'q_0D'q_0D ... expanded.
  Information: Process virtual 'q_1D'q_1D ... expanded.
  Information: Process virtual 'q_2' ... converted to NODE.
  Information: Process virtual 'q_0'q_0 ... expanded.
  Information: Process virtual 'q_1' ... converted to NODE.
  Information: Optimizing logic using best output polarity for signals:
         d(1) d(3) d(4) d(5).D q_1.D q_2.D

  Information: Selected logic optimization OFF for signals:
         d(0) d(2) d(5).AR d(5).C d(6) q_1.AR q_1.C q_2.AR q_2.C



Summary:
                 Error Count = 0      Warning Count = 0

Completed Successfully  
----------------------------------------------------------------------------
PLD Optimizer Software:       MINOPT.EXE     01/NOV/1999  [v4.02 ] 6.3 IR 35

LOGIC MINIMIZATION         ()

Messages:


Summary:
                 Error Count = 0      Warning Count = 0

Completed Successfully
----------------------------------------------------------------------------
PLD Optimizer Software:       DSGNOPT.EXE    31/03/2000  [v4.02 ] 6.3 IR 35

OPTIMIZATION OPTIONS       (23:19:22)

Messages:
  Information: Optimizing Banked Preset/Reset requirements.


Summary:
                 Error Count = 0      Warning Count = 0

Completed Successfully  
----------------------------------------------------------------------------
PLD Compiler Software:        PLA2JED.EXE    31/03/2000  [v4.02 ] 6.3 IR 35

<CYPRESSTAG name="Equations" icon=FILE_RPT_EQUATION>
DESIGN EQUATIONS           (23:19:23)
</CYPRESSTAG>

    d(0) =
          d(3) 

    d(1) =
          /d(5).Q * q_2.Q 
        + /d(5).Q * q_1.Q 

    d(2) =
          d(5).Q * q_1.Q 

    d(3) =
          /d(5).Q * /q_1.Q * /q_2.Q 
        + d(5).Q * q_2.Q 

    d(4) =
          d(5).Q * /q_1.Q 
        + /d(5).Q * /q_2.Q 

    d(5).D =
          c * d(5).Q 
        + /c * /d(5).Q 

    d(5).AR =
          /clr 

    d(5).SP =
          GND

    d(5).C =
          clk 

    d(6) =
          d(5).Q * q_2.Q 

    q_1.D =
          /c * d(5).Q * /q_1.Q * /q_2.Q 
        + c * q_1.Q 
        + /d(5).Q * q_1.Q 

    q_1.AR =
          /clr 

    q_1.SP =
          GND

    q_1.C =
          clk 

    q_2.D =
          /c * d(5).Q * q_1.Q * /q_2.Q 
        + c * q_2.Q 
        + /d(5).Q * q_2.Q 

    q_2.AR =
          /clr 

    q_2.SP =
          GND

    q_2.C =
          clk 


Completed Successfully  
----------------------------------------------------------------------------
PLD Compiler Software:        PLA2JED.EXE    31/03/2000  [v4.02 ] 6.3 IR 35

DESIGN RULE CHECK          (23:19:23)

Messages:
                 None.


Summary:
                 Error Count = 0      Warning Count = 0

Completed Successfully  
----------------------------------------------------------------------------
PLD Compiler Software:        PLA2JED.EXE    31/03/2000  [v4.02 ] 6.3 IR 35

<CYPRESSTAG name="Pinout" icon=FILE_RPT_PINOUT>
PINOUT INFORMATION   (23:19:23)
</CYPRESSTAG>
Messages:
  Information: Checking for duplicate NODE logic.
                 None.


                                 C22V10
                 __________________________________________
            clk =| 1|                                  |24|* not used       
            clr =| 2|                                  |23|= (q_1)          
              c =| 3|                                  |22|= d(6)           
       not used *| 4|                                  |21|= d(5)           
       not used *| 5|                                  |20|= d(4)           
       not used *| 6|                                  |19|= d(3)           
       not used *| 7|                                  |18|= d(2)           
       not used *| 8|                                  |17|= d(1)           
       not used *| 9|                                  |16|= d(0)           
       not used *|10|                                  |15|* not used       
       not used *|11|                                  |14|= (q_2)          
       not used *|12|                                  |13|* not used       
                 __________________________________________


Summary:
                 Error Count = 0      Warning Count = 0

Completed Successfully  
----------------------------------------------------------------------------
PLD Compiler Software:        PLA2JED.EXE    31/03/2000  [v4.02 ] 6.3 IR 35

<CYPRESSTAG name="Utilization" icon=FILE_RPT_UTILIZATION>
RESOURCE UTILIZATION (23:19:23)
</CYPRESSTAG>
  Information: Macrocell Utilization.

                     Description        Used     Max
                 ______________________________________
                 | Dedicated Inputs   |    2  |   11  |
                 | Clock/Inputs       |    1  |    1  |
                 | I/O Macrocells     |    9  |   10  |
                 ______________________________________
                                          12  /   22   = 54  %


  Information: Output Logic Product Term Utilization.

                  Node#  Output Signal Name  Used   Max
                 ________________________________________
                 | 14  |  q_2             |   3  |   8  |
                 | 15  |  Unused          |   0  |  10  |
                 | 16  |  d(0)            |   1  |  12  |
                 | 17  |  d(1)            |   2  |  14  |
                 | 18  |  d(2)            |   1  |  16  |
                 | 19  |  d(3)            |   2  |  16  |
                 | 20  |  d(4)            |   2  |  14  |
                 | 21  |  d(5)            |   2  |  12  |
                 | 22  |  d(6)            |   1  |  10  |
                 | 23  |  q_1             |   3  |   8  |
                 | 25  |  Unused          |   0  |   1  |
                 ________________________________________
                                             17  / 121   = 14  %


Completed Successfully  
----------------------------------------------------------------------------
PLD Compiler Software:        PLA2JED.EXE    31/03/2000  [v4.02 ] 6.3 IR 35

JEDEC ASSEMBLE             (23:19:23)

Messages:
  Information: Output file 'DADO.pin' created.
  Information: Output file 'DADO.jed' created.

  Usercode:    
  Checksum:    8307



Summary:
                 Error Count = 0      Warning Count = 0

Completed Successfully at 23:19:23
