
C:\PROGRA~2\Cypress\Warp\bin\vhdlfe.exe V6.3 IR 35:  VHDL parser
Tue Nov 06 23:19:18 2018

Setting library 'work' to directory 'lc22v10'

C:\PROGRA~2\Cypress\Warp\bin\vhdlfe.exe:  No errors.

