Cypress C22V10 Jedec Fuse File: CONT_8B.jed

This file was created on 11/02/2018 at 15:36:41 
by PLA2JED.EXE    31/03/2000  [v4.02 ] 6.3 IR 35

C22V10*
QP24*                Number of Pins*
QF5828*              Number of Fuses*
F0*                  Note: Default fuse setting 0*
G0*                  Note: Security bit Unprogrammed*
NOTE DEVICE C22V10*
NOTE PACKAGE palc22v10d-25pc*
NOTE PROPERTY BUS_HOLD ENABLE*
NOTE PINS  clk:1 clr:2 c:3 q(0):15 q(1):16 q(2):17 q(3):18 q(4):19 q(5):20 *
NOTE PINS  q(6):21 q(7):22 *
NOTE PINS *
NOTE NODES *
L00000
11111011111111111111111111111111111111111111
* Node clk[1] => BANK : 1 *

L00044
00000000000000000000000000000000000000000000
00000000000000000000000000000000000000000000
00000000000000000000000000000000000000000000
00000000000000000000000000000000000000000000
00000000000000000000000000000000000000000000
00000000000000000000000000000000000000000000
00000000000000000000000000000000000000000000
00000000000000000000000000000000000000000000
00000000000000000000000000000000000000000000
* Not Used #[23] => OE : 1 ,LOGIC : 8 *

L00440
11111111111111111111111111111111111111111111
11111101101011101110111011101110111011111111
11111110011111111111111111111111111111111111
11111110111111111111111111111111110111111111
11111110111111111111111111111101111111111111
11111110111111111111111111011111111111111111
11111110111111111111110111111111111111111111
11111110111111111101111111111111111111111111
11111110111111011111111111111111111111111111
11111110110111111111111111111111111111111111
00000000000000000000000000000000000000000000
* Node q(7)[22] => OE : 1 ,LOGIC : 10 *

L00924
11111111111111111111111111111111111111111111
11111111100111101110111011101110111011111111
11111111011011111111111111111111111111111111
11111111111011111111111111111111110111111111
11111111111011111111111111111101111111111111
11111111111011111111111111011111111111111111
11111111111011111111110111111111111111111111
11111111111011111101111111111111111111111111
11111111111011011111111111111111111111111111
00000000000000000000000000000000000000000000
00000000000000000000000000000000000000000000
00000000000000000000000000000000000000000000
00000000000000000000000000000000000000000000
* Node q(6)[21] => OE : 1 ,LOGIC : 12 *

L01496
11111111111111111111111111111111111111111111
11111111101111011110111011101110111011111111
11111111011111101111111111111111111111111111
11111111111111101111111111111111110111111111
11111111111111101111111111111101111111111111
11111111111111101111111111011111111111111111
11111111111111101111110111111111111111111111
11111111111111101101111111111111111111111111
00000000000000000000000000000000000000000000
00000000000000000000000000000000000000000000
00000000000000000000000000000000000000000000
00000000000000000000000000000000000000000000
00000000000000000000000000000000000000000000
00000000000000000000000000000000000000000000
00000000000000000000000000000000000000000000
* Node q(5)[20] => OE : 1 ,LOGIC : 14 *

L02156
11111111111111111111111111111111111111111111
11111111101111111101111011101110111011111111
11111111011111111110111111111111111111111111
11111111111111111110111111111111110111111111
11111111111111111110111111111101111111111111
11111111111111111110111111011111111111111111
11111111111111111110110111111111111111111111
00000000000000000000000000000000000000000000
00000000000000000000000000000000000000000000
00000000000000000000000000000000000000000000
00000000000000000000000000000000000000000000
00000000000000000000000000000000000000000000
00000000000000000000000000000000000000000000
00000000000000000000000000000000000000000000
00000000000000000000000000000000000000000000
00000000000000000000000000000000000000000000
00000000000000000000000000000000000000000000
* Node q(4)[19] => OE : 1 ,LOGIC : 16 *

L02904
11111111111111111111111111111111111111111111
11111111101111111111110111101110111011111111
11111111011111111111111011111111111111111111
11111111111111111111111011111111110111111111
11111111111111111111111011111101111111111111
11111111111111111111111011011111111111111111
00000000000000000000000000000000000000000000
00000000000000000000000000000000000000000000
00000000000000000000000000000000000000000000
00000000000000000000000000000000000000000000
00000000000000000000000000000000000000000000
00000000000000000000000000000000000000000000
00000000000000000000000000000000000000000000
00000000000000000000000000000000000000000000
00000000000000000000000000000000000000000000
00000000000000000000000000000000000000000000
00000000000000000000000000000000000000000000
* Node q(3)[18] => OE : 1 ,LOGIC : 16 *

L03652
11111111111111111111111111111111111111111111
11111111101111111111111111011110111011111111
11111111011111111111111111101111111111111111
11111111111111111111111111101111110111111111
11111111111111111111111111101101111111111111
00000000000000000000000000000000000000000000
00000000000000000000000000000000000000000000
00000000000000000000000000000000000000000000
00000000000000000000000000000000000000000000
00000000000000000000000000000000000000000000
00000000000000000000000000000000000000000000
00000000000000000000000000000000000000000000
00000000000000000000000000000000000000000000
00000000000000000000000000000000000000000000
00000000000000000000000000000000000000000000
* Node q(2)[17] => OE : 1 ,LOGIC : 14 *

L04312
11111111111111111111111111111111111111111111
11111111101111111111111111111101111011111111
11111111011111111111111111111110111111111111
11111111111111111111111111111110110111111111
00000000000000000000000000000000000000000000
00000000000000000000000000000000000000000000
00000000000000000000000000000000000000000000
00000000000000000000000000000000000000000000
00000000000000000000000000000000000000000000
00000000000000000000000000000000000000000000
00000000000000000000000000000000000000000000
00000000000000000000000000000000000000000000
00000000000000000000000000000000000000000000
* Node q(1)[16] => OE : 1 ,LOGIC : 12 *

L04884
11111111111111111111111111111111111111111111
11111111011111111111111111111111111011111111
11111111101111111111111111111111110111111111
00000000000000000000000000000000000000000000
00000000000000000000000000000000000000000000
00000000000000000000000000000000000000000000
00000000000000000000000000000000000000000000
00000000000000000000000000000000000000000000
00000000000000000000000000000000000000000000
00000000000000000000000000000000000000000000
00000000000000000000000000000000000000000000
* Node q(0)[15] => OE : 1 ,LOGIC : 10 *

L05368
00000000000000000000000000000000000000000000
00000000000000000000000000000000000000000000
00000000000000000000000000000000000000000000
00000000000000000000000000000000000000000000
00000000000000000000000000000000000000000000
00000000000000000000000000000000000000000000
00000000000000000000000000000000000000000000
00000000000000000000000000000000000000000000
00000000000000000000000000000000000000000000
* Not Used #[14] => OE : 1 ,LOGIC : 8 *

L05764
00000000000000000000000000000000000000000000
* Node clr[2] => BANK : 1 *

L05808
00* Note: 23 *

L05810
10* Note: 22 *

L05812
10* Note: 21 *

L05814
10* Note: 20 *

L05816
10* Note: 19 *

L05818
10* Note: 18 *

L05820
10* Note: 17 *

L05822
10* Note: 16 *

L05824
10* Note: 15 *

L05826
00* Note: 14 *

C0C69*               Note: Fuse Checksum*
6D99
